…
```
## 
## ℹ Use `spec()` to retrieve the full column specification for this data.
## ℹ Specify the column types or set `show_col_types = FALSE` to quiet this message.
```

```r
pop
```

```
## # A tibble: 9,719 × 33
##    Country Admin1 SubDiv  Year   Sex Frmat    Pop1   Pop2   Pop3  Pop4  Pop5
##      <dbl>  <dbl> <chr>  <dbl> <dbl> <chr>   <dbl>  <dbl>  <dbl> <dbl> <dbl>
##  1    1060     NA <NA>    1980     1 07     137100   3400  15800    NA    NA
##  2    1060     NA <NA>    1980     2 07     159000   4000  18400    NA    NA
##  3    1125     NA <NA>    1955     1 02    5051500 150300 543400    NA    NA
##  4    1125     NA <NA>    1955     2 02    5049400 145200 551000    NA    NA
##  5    1125     NA <NA>    1956     1 02    5353700 158700 576600    NA    NA
##  6    1125     NA <NA>    1956     2 02    5351400 153600 584800    NA    NA
##  7    1125     NA <NA>    1957     1 02    5403000 160300 580800    NA    NA
##  8    1125     NA <NA>    1957     2 02    5392000 155300 589400    NA    NA
##  9    1125     NA <NA>    1958     1 02    5506900 162800 592000    NA    NA
## 10    1125     NA <NA>    1958     2 02    5494400 157800 600100    NA    NA
## # … with 9,709 more rows, and 22 more variables: Pop6 <dbl>, Pop7 <dbl>,
## #   Pop8 <dbl>, Pop9 <dbl>, Pop10 <dbl>, Pop11 <dbl>, Pop12 <dbl>, Pop13 <dbl>,
## #   Pop14 <dbl>, Pop15 <dbl>, Pop16 <dbl>, Pop17 <dbl>, Pop18 <dbl>,
## #   Pop19 <dbl>, Pop20 <dbl>, Pop21 <dbl>, Pop22 <dbl>, Pop23 <dbl>,
## #   Pop24 <dbl>, Pop25 <dbl>, Pop26 <dbl>, Lb <dbl>
```
…
```
## 
## ℹ Use `spec()` to retrieve the full column specification for this data.
## ℹ Specify the column types or set `show_col_types = FALSE` to quiet this message.
```

```r
country_codes
```

```
## # A tibble: 227 × 2
##    country name                    
##      <dbl> <chr>                   
##  1    1010 Algeria                 
##  2    1020 Angola                  
##  3    1025 Benin                   
##  4    1030 Botswana                
##  5    1035 Burkina Faso            
##  6    1040 Burundi                 
##  7    1045 Cameroon                
##  8    1060 Cape Verde              
##  9    1070 Central African Republic
## 10    1080 Chad                    
## # … with 217 more rows
```
…
```r
list_ctry_yrs
```

```
## # A tibble: 5,919 × 8
##    `World Health Organization Mortal… ...2   ...3  ...4  ...5  ...6  ...7  ...8 
##    <chr>                              <chr>  <chr> <chr> <chr> <chr> <chr> <chr>
##  1 "Availability of countries-years … <NA>   <NA>  <NA>  <NA>  <NA>  <NA>  <NA> 
##  2 "In  column \"ICD\",  \"Icd7\" da… <NA>   <NA>  <NA>  <NA>  <NA>  <NA>  <NA> 
##  3 "Consult file  \"Documentation.do… <NA>   <NA>  <NA>  <NA>  <NA>  <NA>  <NA> 
##  4 "Cells in orange  indicate the ad… <NA>   <NA>  <NA>  <NA>  <NA>  <NA>  <NA> 
##  5 "If you wish to be alerted of the… <NA>   <NA>  <NA>  <NA>  <NA>  <NA>  <NA> 
##  6  <NA>                              <NA>   <NA>  <NA>  <NA>  <NA>  <NA>  <NA> 
##  7 "Country"                          name   Admi… SubD… Year  List  Icd   Upda…
##  8 "4005"                             Alban… <NA>  <NA>  1987  09B   Icd9  <NA> 
##  9 "4005"                             Alban… <NA>  <NA>  1988  09B   Icd9  <NA> 
## 10 "4005"                             Alban… <NA>  <NA>  1989  09B   Icd9  <NA> 
## # … with 5,909 more rows
```
…
We specify another argument called `skip` in the function to illustrate this. 




```r
list_ctry_yrs <- readxl::read_excel("data/who/list_ctry_yrs_21June2021.xlsx", skip = 7)
```

```r
list_ctry_yrs
```

```
## # A tibble: 5,912 × 8
##    Country name    Admin1 SubDiv Year  List  Icd   Update
##    <chr>   <chr>   <chr>  <lgl>  <chr> <chr> <chr> <chr> 
##  1 4005    Albania <NA>   NA     1987  09B   Icd9  <NA>  
##  2 4005    Albania <NA>   NA     1988  09B   Icd9  <NA>  
##  3 4005    Albania <NA>   NA     1989  09B   Icd9  <NA>  
##  4 4005    Albania <NA>   NA     1992  09B   Icd9  <NA>  
##  5 4005    Albania <NA>   NA     1993  09B   Icd9  <NA>  
##  6 4005    Albania <NA>   NA     1994  09B   Icd9  <NA>  
##  7 4005    Albania <NA>   NA     1995  09B   Icd9  <NA>  
##  8 4005    Albania <NA>   NA     1996  09B   Icd9  <NA>  
##  9 4005    Albania <NA>   NA     1997  09B   Icd9  <NA>  
## 10 4005    Albania <NA>   NA     1998  09B   Icd9  <NA>  
## # … with 5,902 more rows
```
…
```r
list_ctry_yrs <- readxl::read_excel("data/who/list_ctry_yrs_21June2021.xlsx", 
                                    range = "A8:H5920")
```

```r
list_ctry_yrs
```

```
## # A tibble: 5,912 × 8
##    Country name    Admin1 SubDiv Year  List  Icd   Update
##    <chr>   <chr>   <chr>  <lgl>  <chr> <chr> <chr> <chr> 
##  1 4005    Albania <NA>   NA     1987  09B   Icd9  <NA>  
##  2 4005    Albania <NA>   NA     1988  09B   Icd9  <NA>  
##  3 4005    Albania <NA>   NA     1989  09B   Icd9  <NA>  
##  4 4005    Albania <NA>   NA     1992  09B   Icd9  <NA>  
##  5 4005    Albania <NA>   NA     1993  09B   Icd9  <NA>  
##  6 4005    Albania <NA>   NA     1994  09B   Icd9  <NA>  
##  7 4005    Albania <NA>   NA     1995  09B   Icd9  <NA>  
##  8 4005    Albania <NA>   NA     1996  09B   Icd9  <NA>  
##  9 4005    Albania <NA>   NA     1997  09B   Icd9  <NA>  
## 10 4005    Albania <NA>   NA     1998  09B   Icd9  <NA>  
## # … with 5,902 more rows
```

For the miliary tuberculosis, it's straightforward to import this dataset. 


```r
miliary_tb <- readxl::read_excel("./data/others/miliary_tb.xlsx")
miliary_tb
```

```
## # A tibble: 81 × 34
##      age gender diagnosis duration cough sputum fiver nightsweat fatigue
##    <dbl>  <dbl>     <dbl>    <dbl> <dbl>  <dbl> <dbl>      <dbl>   <dbl>
##  1     4      2         1       10     1      0     0          0       0
##  2    43      1         1       60     1      1     1          1       0
##  3    20      2         1       45     0      0     1          0       0
##  4    22      2         1       30     0      0     1          0       0
##  5    67      1         1       40     1      0     1          0       0
##  6     6      1         1       13     0      0     1          0       0
##  7    21      2         1       14     1      1     1          0       0
##  8    22      1         1       13     0      0     1          0       0
##  9    30      1         1      120     1      1     1          0       0
## 10    36      1         1        3     1      1     1          0       0
## # … with 71 more rows, and 25 more variables: emaciation <dbl>, nausea <dbl>,
## #   vomit <dbl>, chestpain <dbl>, shortbreath <dbl>, headache <dbl>, WBC <dbl>,
## #   RBC <dbl>, HGB <dbl>, PLT <dbl>, Perc Neutr <dbl>, ALT <dbl>, AST <dbl>,
## #   TP <dbl>, ALB <dbl>, GLB <dbl>, TBIL <dbl>, DBIL <dbl>, IBIL <dbl>,
## #   GGT <dbl>, BUN <dbl>, CREA <dbl>, ESR <dbl>, CRP <dbl>, ADA <dbl>
```
…
```
## [1] "doctor_stata_dm.dta"      "hsb2.csv"                
## [3] "hsb2.dta"                 "hsb2.xls"                
## [5] "patient_pt1_stata_dm.dta" "patient_pt2_stata_dm.dta"
```

```r
doctor_stata_dm <- haven::read_dta("data/ucla/doctor_stata_dm.dta")
doctor_stata_dm
```

```
## # A tibble: 40 × 5
##    docid experience school  lawsuits medicaid
##    <chr>      <dbl> <chr>      <dbl>    <dbl>
##  1 1-1           25 average        3    0.606
##  2 1-11          10 top            0    0.605
##  3 1-21          21 average        3    0.483
##  4 1-22          22 top            3    0.483
##  5 1-33          16 top            0    0.584
##  6 1-48          23 average        3    0.219
##  7 1-57          21 average        1    0.405
##  8 1-58          21 average        1    0.405
##  9 1-72          24 average        4    0.522
## 10 1-73          14 average        1    0.522
## # … with 30 more rows
```

```r
patient_pt1_stata_dm <- haven::read_dta("data/ucla/patient_pt1_stata_dm.dta")
patient_pt1_stata_dm
```

```
## # A tibble: 120 × 25
##    hospital hospid docid dis_date   tumorsize   co2  pain wound mobility ntumors
##    <chr>     <dbl> <chr> <date>         <dbl> <dbl> <dbl> <dbl>    <dbl>   <dbl>
##  1 UCLA          1 1-1   2009-09-06      68.0  1.53     4     4        2       0
##  2 UCLA          1 1-1   2011-01-07      64.7  1.68     2     3        2       0
##  3 UCLA          1 1-1   2010-09-04      86.4  1.45     3     3        2       0
##  4 UCLA          1 1-1   2010-06-25      53.4  1.57     3     4        2       0
##  5 UCLA          1 1-1   2009-07-01      51.7  1.42     4     5        2       0
##  6 UCLA          1 1-1   2009-03-06      78.9  1.71     3     4        2       0
##  7 UCLA          1 1-1   2010-04-15      62.9  1.54     4     4        3       2
##  8 UCLA          1 1-11  2010-07-25      73.2  1.45     4     5        9       9
##  9 UCLA          1 1-11  2009-07-12      81.2  1.55     5     5        9       0
## 10 UCLA          1 1-11  2009-08-19      61.3  1.49     7     7        8       2
## # … with 110 more rows, and 15 more variables: nmorphine <dbl>,
## #   remission <dbl>, lungcapacity <dbl>, age <dbl>, married <dbl>,
## #   familyhx <chr>, smokinghx <chr>, sex <chr>, cancerstage <chr>,
## #   lengthofstay <dbl>, wbc <chr>, rbc <dbl>, bmi <dbl>, test1 <dbl>,
## #   test2 <dbl>
```

```r
patient_pt2_stata_dm <- haven::read_dta("data/ucla/patient_pt2_stata_dm.dta")
patient_pt2_stata_dm
```

```
## # A tibble: 111 × 24
##    hospital        hospid docid dis_date   tumorsize    co2  pain wound mobility
##    <chr>            <dbl> <chr> <date>         <dbl>  <dbl> <dbl> <dbl>    <dbl>
##  1 "Cedars-Sinai"       3 3-227 2009-10-01      69.8   1.53     6     5        5
##  2 "Cedars-Sinai"       3 3-227 2010-02-18      68.0   1.69     8     4        5
##  3 "Cedars-Sinai"       3 3-227 2009-06-30      65.1   1.56     7     4        6
##  4 "Cedars-Sinai"       3 3-227 2009-11-15      71.4 -98        9     5        6
##  5 "Cedars-Sinai"       3 3-227 2010-02-17      69.5   1.68     4     5        6
##  6 "Cedars-Sinai"       3 3-227 2009-12-22      89.7   1.89     5     6        5
##  7 " Cedars-Sinai"      3 3-227 2010-04-15      73.1   1.78     6     4        5
##  8 "Cedars-Sinai"       3 3-241 2010-04-17      80.6   1.53     3     7        6
##  9 "Cedars-Sinai"       3 3-241 2010-10-12      55.1   1.71     5     7        6
## 10 "Cedars-Sinai"       3 3-241 2009-10-30      61.3   1.78     8     7        6
## # … with 101 more rows, and 15 more variables: ntumors <dbl>, remission <dbl>,
## #   lungcapacity <dbl>, age <dbl>, married <dbl>, familyhx <chr>,
## #   smokinghx <chr>, sex <chr>, cancerstage <chr>, lengthofstay <dbl>,
## #   wbc <chr>, rbc <dbl>, bmi <dbl>, test1 <dbl>, test2 <dbl>
```
…
